{
    "usageCount": 0, 
    "omitTrigger": false, 
    "prompt": false, 
    "description": "View masterlog", 
    "abbreviation": {
        "wordChars": "[\\w]", 
        "abbreviations": [
            ";q2"
        ], 
        "immediate": true, 
        "ignoreCase": false, 
        "backspace": true, 
        "triggerInside": false
    }, 
    "hotkey": {
        "hotKey": "<f2>", 
        "modifiers": [
            "<alt>"
        ]
    }, 
    "modes": [
        1, 
        3
    ], 
    "showInTrayMenu": false, 
    "matchCase": false, 
    "filter": {
        "regex": "tilix.Tilix", 
        "isRecursive": false
    }, 
    "type": "phrase", 
    "sendMode": "kb"
}