{
    "usageCount": 0, 
    "omitTrigger": false, 
    "prompt": false, 
    "description": "Clean performed", 
    "abbreviation": {
        "wordChars": "[\\w]", 
        "abbreviations": [
            "amcs"
        ], 
        "immediate": true, 
        "ignoreCase": true, 
        "backspace": true, 
        "triggerInside": false
    }, 
    "hotkey": {
        "hotKey": null, 
        "modifiers": []
    }, 
    "modes": [
        1
    ], 
    "showInTrayMenu": false, 
    "filter": {
        "regex": "CRM", 
        "isRecursive": false
    }, 
    "type": "script", 
    "store": {}
}